{
    "fluentMethods": true,
    "relationships": [
        {
            "relationshipName": "oficina",
            "otherEntityName": "oficina",
            "relationshipType": "many-to-one",
            "otherEntityField": "id"
        },
        {
            "relationshipType": "one-to-many",
            "relationshipName": "legajoasig",
            "otherEntityName": "legajoasig",
            "otherEntityRelationshipName": "abogado"
        },
        {
            "relationshipType": "one-to-many",
            "relationshipName": "legtipdoc",
            "otherEntityName": "legtipdoc",
            "otherEntityRelationshipName": "abogado"
        },
        {
            "relationshipType": "one-to-many",
            "relationshipName": "falsoexp",
            "otherEntityName": "falsoexp",
            "otherEntityRelationshipName": "abogado"
        },
        {
            "relationshipType": "one-to-many",
            "relationshipName": "concilia",
            "otherEntityName": "concilia",
            "otherEntityRelationshipName": "abogado"
        }
    ],
    "fields": [
        {
            "fieldName": "vNomabogad",
            "fieldType": "String",
            "fieldValidateRules": [
                "maxlength"
            ],
            "fieldValidateRulesMaxlength": 250
        },
        {
            "fieldName": "nCodabousu",
            "fieldType": "Integer"
        },
        {
            "fieldName": "nUsuareg",
            "fieldType": "Integer",
            "fieldValidateRules": [
                "required"
            ]
        },
        {
            "fieldName": "tFecreg",
            "fieldType": "Instant",
            "fieldValidateRules": [
                "required"
            ]
        },
        {
            "fieldName": "nFlgactivo",
            "fieldType": "Boolean",
            "fieldValidateRules": [
                "required"
            ]
        },
        {
            "fieldName": "nSedereg",
            "fieldType": "Integer",
            "fieldValidateRules": [
                "required"
            ]
        },
        {
            "fieldName": "nUsuaupd",
            "fieldType": "Integer"
        },
        {
            "fieldName": "tFecupd",
            "fieldType": "Instant"
        },
        {
            "fieldName": "nSedeupd",
            "fieldType": "Integer"
        }
    ],
    "changelogDate": "20171130152939",
    "entityTableName": "abogado",
    "dto": "no",
    "pagination": "no",
    "service": "no"
}