{
    "fluentMethods": true,
    "relationships": [
        {
            "relationshipName": "pernatural",
            "otherEntityName": "pernatural",
            "relationshipType": "many-to-one",
            "otherEntityField": "id"
        },
        {
            "relationshipType": "one-to-many",
            "relationshipName": "dirdenun",
            "otherEntityName": "dirdenun",
            "otherEntityRelationshipName": "denunte"
        },
        {
            "relationshipType": "one-to-many",
            "relationshipName": "denuncia",
            "otherEntityName": "denuncia",
            "otherEntityRelationshipName": "denunte"
        }
    ],
    "fields": [
        {
            "fieldName": "nCodusu",
            "fieldType": "Integer",
            "fieldValidateRules": [
                "required"
            ]
        },
        {
            "fieldName": "vFlgestado",
            "fieldType": "String",
            "fieldValidateRules": [
                "required",
                "maxlength"
            ],
            "fieldValidateRulesMaxlength": 1
        },
        {
            "fieldName": "vUsuareg",
            "fieldType": "String",
            "fieldValidateRules": [
                "required",
                "maxlength"
            ],
            "fieldValidateRulesMaxlength": 20
        },
        {
            "fieldName": "tFecreg",
            "fieldType": "Instant",
            "fieldValidateRules": [
                "required"
            ]
        },
        {
            "fieldName": "nFlgactivo",
            "fieldType": "Boolean"
        },
        {
            "fieldName": "nSedereg",
            "fieldType": "Integer",
            "fieldValidateRules": [
                "required"
            ]
        },
        {
            "fieldName": "vUsuaupd",
            "fieldType": "String",
            "fieldValidateRules": [
                "maxlength"
            ],
            "fieldValidateRulesMaxlength": 20
        },
        {
            "fieldName": "tFecupd",
            "fieldType": "Instant"
        },
        {
            "fieldName": "nSedeupd",
            "fieldType": "Integer"
        }
    ],
    "changelogDate": "20171130152950",
    "entityTableName": "denunte",
    "dto": "no",
    "pagination": "no",
    "service": "no"
}